…
``` r
#Select (data, lo que quieres seleccionar de tu data)

starwars %>% 
  select(name)
```

    ## # A tibble: 87 x 1
    ##    name              
    ##    <chr>             
    ##  1 Luke Skywalker    
    ##  2 C-3PO             
    ##  3 R2-D2             
    ##  4 Darth Vader       
    ##  5 Leia Organa       
    ##  6 Owen Lars         
    ##  7 Beru Whitesun lars
    ##  8 R5-D4             
    ##  9 Biggs Darklighter 
    ## 10 Obi-Wan Kenobi    
    ## # ... with 77 more rows

``` r
starwars %>% 
  select(name, height)
```

    ## # A tibble: 87 x 2
    ##    name               height
    ##    <chr>               <int>
    ##  1 Luke Skywalker        172
    ##  2 C-3PO                 167
    ##  3 R2-D2                  96
    ##  4 Darth Vader           202
    ##  5 Leia Organa           150
    ##  6 Owen Lars             178
    ##  7 Beru Whitesun lars    165
    ##  8 R5-D4                  97
    ##  9 Biggs Darklighter     183
    ## 10 Obi-Wan Kenobi        182
    ## # ... with 77 more rows

``` r
starwars %>% 
  select(name, height, ends_with("color"))
```

    ## # A tibble: 87 x 5
    ##    name               height hair_color    skin_color  eye_color
    ##    <chr>               <int> <chr>         <chr>       <chr>    
    ##  1 Luke Skywalker        172 blond         fair        blue     
    ##  2 C-3PO                 167 <NA>          gold        yellow   
    ##  3 R2-D2                  96 <NA>          white, blue red      
    ##  4 Darth Vader           202 none          white       yellow   
    ##  5 Leia Organa           150 brown         light       brown    
    ##  6 Owen Lars             178 brown, grey   light       blue     
    ##  7 Beru Whitesun lars    165 brown         light       blue     
    ##  8 R5-D4                  97 <NA>          white, red  red      
    ##  9 Biggs Darklighter     183 black         light       brown    
    ## 10 Obi-Wan Kenobi        182 auburn, white fair        blue-gray
    ## # ... with 77 more rows

``` r
starwars %>% 
  select(starts_with("eye"))
```

    ## # A tibble: 87 x 1
    ##    eye_color
    ##    <chr>    
    ##  1 blue     
    ##  2 yellow   
    ##  3 red      
    ##  4 yellow   
    ##  5 brown    
    ##  6 blue     
    ##  7 blue     
    ##  8 red      
    ##  9 brown    
    ## 10 blue-gray
    ## # ... with 77 more rows

``` r
starwars %>% 
  select(-(starts_with("eye")), -(name))
```

    ## # A tibble: 87 x 12
    ##    height  mass hair_color  skin_color birth_year sex   gender homeworld species
    ##     <int> <dbl> <chr>       <chr>           <dbl> <chr> <chr>  <chr>     <chr>  
    ##  1    172    77 blond       fair             19   male  mascu~ Tatooine  Human  
    ##  2    167    75 <NA>        gold            112   none  mascu~ Tatooine  Droid  
    ##  3     96    32 <NA>        white, bl~       33   none  mascu~ Naboo     Droid  
    ##  4    202   136 none        white            41.9 male  mascu~ Tatooine  Human  
    ##  5    150    49 brown       light            19   fema~ femin~ Alderaan  Human  
    ##  6    178   120 brown, grey light            52   male  mascu~ Tatooine  Human  
    ##  7    165    75 brown       light            47   fema~ femin~ Tatooine  Human  
    ##  8     97    32 <NA>        white, red       NA   none  mascu~ Tatooine  Droid  
    ##  9    183    84 black       light            24   male  mascu~ Tatooine  Human  
    ## 10    182    77 auburn, wh~ fair             57   male  mascu~ Stewjon   Human  
    ## # ... with 77 more rows, and 3 more variables: films <list>, vehicles <list>,
    ## #   starships <list>

``` r
starwars %>% 
  select(contains("_"))
```

    ## # A tibble: 87 x 4
    ##    hair_color    skin_color  eye_color birth_year
    ##    <chr>         <chr>       <chr>          <dbl>
    ##  1 blond         fair        blue            19  
    ##  2 <NA>          gold        yellow         112  
    ##  3 <NA>          white, blue red             33  
    ##  4 none          white       yellow          41.9
    ##  5 brown         light       brown           19  
    ##  6 brown, grey   light       blue            52  
    ##  7 brown         light       blue            47  
    ##  8 <NA>          white, red  red             NA  
    ##  9 black         light       brown           24  
    ## 10 auburn, white fair        blue-gray       57  
    ## # ... with 77 more rows

``` r
#Rename (Renombrar columnas)

starwars %>% 
  select(name, height) %>% rename(nombre=name, peso=height)
```

    ## # A tibble: 87 x 2
    ##    nombre              peso
    ##    <chr>              <int>
    ##  1 Luke Skywalker       172
    ##  2 C-3PO                167
    ##  3 R2-D2                 96
    ##  4 Darth Vader          202
    ##  5 Leia Organa          150
    ##  6 Owen Lars            178
    ##  7 Beru Whitesun lars   165
    ##  8 R5-D4                 97
    ##  9 Biggs Darklighter    183
    ## 10 Obi-Wan Kenobi       182
    ## # ... with 77 more rows

``` r
#Relocate (Mover solo las columnas)

starwars %>% relocate(height)
```

    ## # A tibble: 87 x 14
    ##    height name     mass hair_color  skin_color eye_color birth_year sex   gender
    ##     <int> <chr>   <dbl> <chr>       <chr>      <chr>          <dbl> <chr> <chr> 
    ##  1    172 Luke S~    77 blond       fair       blue            19   male  mascu~
    ##  2    167 C-3PO      75 <NA>        gold       yellow         112   none  mascu~
    ##  3     96 R2-D2      32 <NA>        white, bl~ red             33   none  mascu~
    ##  4    202 Darth ~   136 none        white      yellow          41.9 male  mascu~
    ##  5    150 Leia O~    49 brown       light      brown           19   fema~ femin~
    ##  6    178 Owen L~   120 brown, grey light      blue            52   male  mascu~
    ##  7    165 Beru W~    75 brown       light      blue            47   fema~ femin~
    ##  8     97 R5-D4      32 <NA>        white, red red             NA   none  mascu~
    ##  9    183 Biggs ~    84 black       light      brown           24   male  mascu~
    ## 10    182 Obi-Wa~    77 auburn, wh~ fair       blue-gray       57   male  mascu~
    ## # ... with 77 more rows, and 5 more variables: homeworld <chr>, species <chr>,
    ## #   films <list>, vehicles <list>, starships <list>

``` r
starwars %>% relocate(height, .after=mass)
```

    ## # A tibble: 87 x 14
    ##    name     mass height hair_color  skin_color eye_color birth_year sex   gender
    ##    <chr>   <dbl>  <int> <chr>       <chr>      <chr>          <dbl> <chr> <chr> 
    ##  1 Luke S~    77    172 blond       fair       blue            19   male  mascu~
    ##  2 C-3PO      75    167 <NA>        gold       yellow         112   none  mascu~
    ##  3 R2-D2      32     96 <NA>        white, bl~ red             33   none  mascu~
    ##  4 Darth ~   136    202 none        white      yellow          41.9 male  mascu~
    ##  5 Leia O~    49    150 brown       light      brown           19   fema~ femin~
    ##  6 Owen L~   120    178 brown, grey light      blue            52   male  mascu~
    ##  7 Beru W~    75    165 brown       light      blue            47   fema~ femin~
    ##  8 R5-D4      32     97 <NA>        white, red red             NA   none  mascu~
    ##  9 Biggs ~    84    183 black       light      brown           24   male  mascu~
    ## 10 Obi-Wa~    77    182 auburn, wh~ fair       blue-gray       57   male  mascu~
    ## # ... with 77 more rows, and 5 more variables: homeworld <chr>, species <chr>,
    ## #   films <list>, vehicles <list>, starships <list>

``` r
starwars %>% relocate(height, .before=mass)
```

    ## # A tibble: 87 x 14
    ##    name    height  mass hair_color  skin_color eye_color birth_year sex   gender
    ##    <chr>    <int> <dbl> <chr>       <chr>      <chr>          <dbl> <chr> <chr> 
    ##  1 Luke S~    172    77 blond       fair       blue            19   male  mascu~
    ##  2 C-3PO      167    75 <NA>        gold       yellow         112   none  mascu~
    ##  3 R2-D2       96    32 <NA>        white, bl~ red             33   none  mascu~
    ##  4 Darth ~    202   136 none        white      yellow          41.9 male  mascu~
    ##  5 Leia O~    150    49 brown       light      brown           19   fema~ femin~
    ##  6 Owen L~    178   120 brown, grey light      blue            52   male  mascu~
    ##  7 Beru W~    165    75 brown       light      blue            47   fema~ femin~
    ##  8 R5-D4       97    32 <NA>        white, red red             NA   none  mascu~
    ##  9 Biggs ~    183    84 black       light      brown           24   male  mascu~
    ## 10 Obi-Wa~    182    77 auburn, wh~ fair       blue-gray       57   male  mascu~
    ## # ... with 77 more rows, and 5 more variables: homeworld <chr>, species <chr>,
    ## #   films <list>, vehicles <list>, starships <list>

``` r
starwars %>% relocate(sex, height, .before=mass)
```

    ## # A tibble: 87 x 14
    ##    name    sex    height  mass hair_color skin_color eye_color birth_year gender
    ##    <chr>   <chr>   <int> <dbl> <chr>      <chr>      <chr>          <dbl> <chr> 
    ##  1 Luke S~ male      172    77 blond      fair       blue            19   mascu~
    ##  2 C-3PO   none      167    75 <NA>       gold       yellow         112   mascu~
    ##  3 R2-D2   none       96    32 <NA>       white, bl~ red             33   mascu~
    ##  4 Darth ~ male      202   136 none       white      yellow          41.9 mascu~
    ##  5 Leia O~ female    150    49 brown      light      brown           19   femin~
    ##  6 Owen L~ male      178   120 brown, gr~ light      blue            52   mascu~
    ##  7 Beru W~ female    165    75 brown      light      blue            47   femin~
    ##  8 R5-D4   none       97    32 <NA>       white, red red             NA   mascu~
    ##  9 Biggs ~ male      183    84 black      light      brown           24   mascu~
    ## 10 Obi-Wa~ male      182    77 auburn, w~ fair       blue-gray       57   mascu~
    ## # ... with 77 more rows, and 5 more variables: homeworld <chr>, species <chr>,
    ## #   films <list>, vehicles <list>, starships <list>

``` r
#Arrange (Ordenar columnas)
#Los N.a. siempre van al final"

starwars %>% 
  arrange(height)
```

    ## # A tibble: 87 x 14
    ##    name     height  mass hair_color skin_color eye_color birth_year sex   gender
    ##    <chr>     <int> <dbl> <chr>      <chr>      <chr>          <dbl> <chr> <chr> 
    ##  1 Yoda         66    17 white      green      brown            896 male  mascu~
    ##  2 Ratts T~     79    15 none       grey, blue unknown           NA male  mascu~
    ##  3 Wicket ~     88    20 brown      brown      brown              8 male  mascu~
    ##  4 Dud Bolt     94    45 none       blue, grey yellow            NA male  mascu~
    ##  5 R2-D2        96    32 <NA>       white, bl~ red               33 none  mascu~
    ##  6 R4-P17       96    NA none       silver, r~ red, blue         NA none  femin~
    ##  7 R5-D4        97    32 <NA>       white, red red               NA none  mascu~
    ##  8 Sebulba     112    40 none       grey, red  orange            NA male  mascu~
    ##  9 Gasgano     122    NA none       white, bl~ black             NA male  mascu~
    ## 10 Watto       137    NA black      blue, grey yellow            NA male  mascu~
    ## # ... with 77 more rows, and 5 more variables: homeworld <chr>, species <chr>,
    ## #   films <list>, vehicles <list>, starships <list>

``` r
starwars %>% 
  arrange(desc(height))
```

    ## # A tibble: 87 x 14
    ##    name    height  mass hair_color skin_color  eye_color birth_year sex   gender
    ##    <chr>    <int> <dbl> <chr>      <chr>       <chr>          <dbl> <chr> <chr> 
    ##  1 Yarael~    264    NA none       white       yellow          NA   male  mascu~
    ##  2 Tarfful    234   136 brown      brown       blue            NA   male  mascu~
    ##  3 Lama Su    229    88 none       grey        black           NA   male  mascu~
    ##  4 Chewba~    228   112 brown      unknown     blue           200   male  mascu~
    ##  5 Roos T~    224    82 none       grey        orange          NA   male  mascu~
    ##  6 Grievo~    216   159 none       brown, whi~ green, y~       NA   male  mascu~
    ##  7 Taun We    213    NA none       grey        black           NA   fema~ femin~
    ##  8 Rugor ~    206    NA none       green       orange          NA   male  mascu~
    ##  9 Tion M~    206    80 none       grey        black           NA   male  mascu~
    ## 10 Darth ~    202   136 none       white       yellow          41.9 male  mascu~
    ## # ... with 77 more rows, and 5 more variables: homeworld <chr>, species <chr>,
    ## #   films <list>, vehicles <list>, starships <list>

``` r
#Add row (agregar una fila)

starwars %>% 
  add_row(name="Sergio", mass=52, height=60, .before=5)
```

    ## # A tibble: 88 x 14
    ##    name     height  mass hair_color skin_color eye_color birth_year sex   gender
    ##    <chr>     <dbl> <dbl> <chr>      <chr>      <chr>          <dbl> <chr> <chr> 
    ##  1 Luke Sk~    172    77 blond      fair       blue            19   male  mascu~
    ##  2 C-3PO       167    75 <NA>       gold       yellow         112   none  mascu~
    ##  3 R2-D2        96    32 <NA>       white, bl~ red             33   none  mascu~
    ##  4 Darth V~    202   136 none       white      yellow          41.9 male  mascu~
    ##  5 Sergio       60    52 <NA>       <NA>       <NA>            NA   <NA>  <NA>  
    ##  6 Leia Or~    150    49 brown      light      brown           19   fema~ femin~
    ##  7 Owen La~    178   120 brown, gr~ light      blue            52   male  mascu~
    ##  8 Beru Wh~    165    75 brown      light      blue            47   fema~ femin~
    ##  9 R5-D4        97    32 <NA>       white, red red             NA   none  mascu~
    ## 10 Biggs D~    183    84 black      light      brown           24   male  mascu~
    ## # ... with 78 more rows, and 5 more variables: homeworld <chr>, species <chr>,
    ## #   films <list>, vehicles <list>, starships <list>

``` r
#Mutate (Agregar o transformar nuevas columnas)

starwars %>% 
  select(name, height, mass)
```

    ## # A tibble: 87 x 3
    ##    name               height  mass
    ##    <chr>               <int> <dbl>
    ##  1 Luke Skywalker        172    77
    ##  2 C-3PO                 167    75
    ##  3 R2-D2                  96    32
    ##  4 Darth Vader           202   136
    ##  5 Leia Organa           150    49
    ##  6 Owen Lars             178   120
    ##  7 Beru Whitesun lars    165    75
    ##  8 R5-D4                  97    32
    ##  9 Biggs Darklighter     183    84
    ## 10 Obi-Wan Kenobi        182    77
    ## # ... with 77 more rows

``` r
starwars %>% 
  select(name, height, mass) %>% mutate(NUEVO=height*mass, VIEJO=height-mass/2)
```

    ## # A tibble: 87 x 5
    ##    name               height  mass NUEVO VIEJO
    ##    <chr>               <int> <dbl> <dbl> <dbl>
    ##  1 Luke Skywalker        172    77 13244  134.
    ##  2 C-3PO                 167    75 12525  130.
    ##  3 R2-D2                  96    32  3072   80 
    ##  4 Darth Vader           202   136 27472  134 
    ##  5 Leia Organa           150    49  7350  126.
    ##  6 Owen Lars             178   120 21360  118 
    ##  7 Beru Whitesun lars    165    75 12375  128.
    ##  8 R5-D4                  97    32  3104   81 
    ##  9 Biggs Darklighter     183    84 15372  141 
    ## 10 Obi-Wan Kenobi        182    77 14014  144.
    ## # ... with 77 more rows

``` r
#Transmute (Conservar solo las variables transformadas)

starwars %>% 
  select(name, height, mass) %>% transmute(NUEVO=height*mass, VIEJO=height-mass/2)
```

    ## # A tibble: 87 x 2
    ##    NUEVO VIEJO
    ##    <dbl> <dbl>
    ##  1 13244  134.
    ##  2 12525  130.
    ##  3  3072   80 
    ##  4 27472  134 
    ##  5  7350  126.
    ##  6 21360  118 
    ##  7 12375  128.
    ##  8  3104   81 
    ##  9 15372  141 
    ## 10 14014  144.
    ## # ... with 77 more rows
…
    ## # A tibble: 5 x 1
    ##   sex           
    ##   <chr>         
    ## 1 male          
    ## 2 none          
    ## 3 female        
    ## 4 hermaphroditic
    ## 5 <NA>

``` r
starwars %>% distinct(sex, mass)
```

    ## # A tibble: 46 x 2
    ##     mass sex   
    ##    <dbl> <chr> 
    ##  1    77 male  
    ##  2    75 none  
    ##  3    32 none  
    ##  4   136 male  
    ##  5    49 female
    ##  6   120 male  
    ##  7    75 female
    ##  8    84 male  
    ##  9    NA male  
    ## 10   112 male  
    ## # ... with 36 more rows
…
    ## # A tibble: 3 x 14
    ##   name     height  mass hair_color skin_color  eye_color birth_year sex   gender
    ##   <chr>     <int> <dbl> <chr>      <chr>       <chr>          <dbl> <chr> <chr> 
    ## 1 Luke Sk~    172    77 blond      fair        blue              19 male  mascu~
    ## 2 C-3PO       167    75 <NA>       gold        yellow           112 none  mascu~
    ## 3 R2-D2        96    32 <NA>       white, blue red               33 none  mascu~
    ## # ... with 5 more variables: homeworld <chr>, species <chr>, films <list>,
    ## #   vehicles <list>, starships <list>

``` r
#Sin las 3 primeras filas
starwars %>% slice(-(1:3))
```

    ## # A tibble: 84 x 14
    ##    name    height  mass hair_color  skin_color eye_color birth_year sex   gender
    ##    <chr>    <int> <dbl> <chr>       <chr>      <chr>          <dbl> <chr> <chr> 
    ##  1 Darth ~    202   136 none        white      yellow          41.9 male  mascu~
    ##  2 Leia O~    150    49 brown       light      brown           19   fema~ femin~
    ##  3 Owen L~    178   120 brown, grey light      blue            52   male  mascu~
    ##  4 Beru W~    165    75 brown       light      blue            47   fema~ femin~
    ##  5 R5-D4       97    32 <NA>        white, red red             NA   none  mascu~
    ##  6 Biggs ~    183    84 black       light      brown           24   male  mascu~
    ##  7 Obi-Wa~    182    77 auburn, wh~ fair       blue-gray       57   male  mascu~
    ##  8 Anakin~    188    84 blond       fair       blue            41.9 male  mascu~
    ##  9 Wilhuf~    180    NA auburn, gr~ fair       blue            64   male  mascu~
    ## 10 Chewba~    228   112 brown       unknown    blue           200   male  mascu~
    ## # ... with 74 more rows, and 5 more variables: homeworld <chr>, species <chr>,
    ## #   films <list>, vehicles <list>, starships <list>
…
